rss_reader_table – GoData.ca
…
my_feed_data_summary <- my_feed_data |>
  select(item_title, feed_pub_date, item_link,
         item_description) 

#changed item_title to item_desc
my_rss_feed <- my_feed_data_summary |> mutate(
    item_title = str_glue("<a target='_blank' title='{item_title}' href='{item_link}' rel='noopener'>{item_title}</a>")
)

my_rss_feed_table <- my_rss_feed |> select(-item_link)
#my_feed_data_summary

my_rss_feed_table

# A tibble: 243 × 3
   item_title                               feed_pub_date       item_description
   <glue>                                   <dttm>              <chr>           
 1 <a target='_blank' title='Hypertokens: … 2025-07-02 00:00:00 "arXiv:2507.000…
 2 <a target='_blank' title='Deciding When… 2025-07-02 00:00:00 "arXiv:2507.000…
 3 <a target='_blank' title='A Theory of I… 2025-07-02 00:00:00 "arXiv:2507.000…
 4 <a target='_blank' title='Novel RL appr… 2025-07-02 00:00:00 "arXiv:2507.000…
 5 <a target='_blank' title='Towards Undis… 2025-07-02 00:00:00 "arXiv:2507.000…
 6 <a target='_blank' title='ST-MTM: Maske… 2025-07-02 00:00:00 "arXiv:2507.000…
 7 <a target='_blank' title='SWE-Bench-CL:… 2025-07-02 00:00:00 "arXiv:2507.000…
 8 <a target='_blank' title='Vision Transf… 2025-07-02 00:00:00 "arXiv:2507.000…
 9 <a target='_blank' title='Gradient-base… 2025-07-02 00:00:00 "arXiv:2507.000…
10 <a target='_blank' title='Implicit Rewa… 2025-07-02 00:00:00 "arXiv:2507.000…
# ℹ 233 more rows
…
